{
    "KPlugin": {
        "Authors": [
            {
                "Email": "mgraesslin@kde.org",
                "Name": "Martin Gräßlin",
                "Name[ar]": "Martin Gräßlin",
                "Name[az]": "Martin Gräßlin",
                "Name[bg]": "Martin Gräßlin",
                "Name[ca@valencia]": "Martin Gräßlin",
                "Name[ca]": "Martin Gräßlin",
                "Name[cs]": "Martin Gräßlin",
                "Name[de]": "Martin Gräßlin",
                "Name[en_GB]": "Martin Gräßlin",
                "Name[es]": "Martin Gräßlin",
                "Name[eu]": "Martin Gräßlin",
                "Name[fi]": "Martin Gräßlin",
                "Name[fr]": "Martin Gräßlin",
                "Name[ia]": "Martin Gräßlin",
                "Name[id]": "Martin Gräßlin",
                "Name[is]": "Martin Gräßlin",
                "Name[it]": "Martin Gräßlin",
                "Name[ja]": "Martin Gräßlin",
                "Name[ka]": "მარტინ გრესსლინი",
                "Name[ko]": "Martin Gräßlin",
                "Name[lt]": "Martin Gräßlin",
                "Name[nl]": "Martin Gräßlin",
                "Name[nn]": "Martin Gräßlin",
                "Name[pl]": "Martin Gräßlin",
                "Name[pt]": "Martin Gräßlin",
                "Name[pt_BR]": "Martin Gräßlin",
                "Name[ro]": "Martin Gräßlin",
                "Name[ru]": "Martin Gräßlin",
                "Name[sk]": "Martin Gräßlin",
                "Name[sl]": "Martin Gräßlin",
                "Name[sv]": "Martin Gräßlin",
                "Name[tr]": "Martin Gräßlin",
                "Name[uk]": "Martin Gräßlin",
                "Name[vi]": "Martin Gräßlin",
                "Name[x-test]": "xxMartin Gräßlinxx",
                "Name[zh_CN]": "Martin Gräßlin",
                "Name[zh_TW]": "Martin Gräßlin"
            }
        ],
        "Description": "A window switcher layout only showing window captions",
        "Description[ar]": "مخطط مبدل النوافذ يعرض تعليقات النافذة فقط",
        "Description[az]": "Yalnız pəncərə başlıqlarını göstərən pəncərə dəyişdirici maketi",
        "Description[bg]": "Оформление на програмата за превключване на прозорци, показващо само заглавието на прозорците",
        "Description[ca@valencia]": "Una disposició del commutador de finestres que només mostra els títols de les finestres",
        "Description[ca]": "Una disposició del commutador de finestres que només mostra els títols de les finestres",
        "Description[cs]": "Rozvržení přepínače oken zobrazující pouze titulek okna",
        "Description[de]": "Ein Fensterwechsler-Layout, das nur die Titel der Fenster anzeigt",
        "Description[en_GB]": "A window switcher layout only showing window captions",
        "Description[es]": "Un esquema de selección de ventanas que solo muestra los títulos de las ventanas",
        "Description[eu]": "Leiho-epigrafeak bakarri erakusten dituen leiho-trukatzaile antolamendu bat",
        "Description[fi]": "Ikkunavaihtoasettelu, joka näyttää vain ikkunoiden otsikot",
        "Description[fr]": "Une disposition du sélecteur de fenêtres affichant uniquement les titres des fenêtres",
        "Description[ia]": "Un disposition de commutator de fenestra monstrante solo legendas de fenestra",
        "Description[id]": "Sebuah tataletak pengalih jendela yang hanya menampilkan bab jendela",
        "Description[it]": "Una disposizione del selettore delle finestre che mostra solo i titoli delle finestre",
        "Description[ja]": "ウィンドウのタイトルのみを表示するウィンドウスイッチャー",
        "Description[ka]": "ფანჯრების განლაგების გადართვა მხოლოდ ფანჯრის სათაურის ჩვენების საშუალებით",
        "Description[ko]": "캡션만 보여 주는 창 전환기",
        "Description[lt]": "Langų perjungiklio išdėstymas, atvaizduojantis tik langų pavadinimus",
        "Description[nl]": "Een indeling van de vensterwisselaar die alleen bijschriften van vensters toont",
        "Description[nn]": "Vindaugsbytar som berre viser vindaugsnamn",
        "Description[pl]": "Przełącznik okien z tytułami okien",
        "Description[pt]": "Uma disposição de mudança de janelas que só mostra os títulos das janelas",
        "Description[pt_BR]": "Um layout do seletor de janelas que mostra apenas os títulos das janelas",
        "Description[ro]": "Aranjament pentru comutatorul de ferestre arătând doar titlurile ferestrelor",
        "Description[ru]": "Переключатель окон, показывающий только заголовки окон",
        "Description[sk]": "Rozloženie prepínača okien zobrazujúce len popisky okien",
        "Description[sl]": "Razporeditev preklopa oken, ki prikazuje samo napise oken",
        "Description[sv]": "En layout för fönsterbyte som bara visar fönsterrubriker",
        "Description[tr]": "Yalnızca pencere altyazılarını gösteren bir pencere değiştirici düzeni",
        "Description[uk]": "Компонування засобу перемикання вікон з показом лише підписів вікон",
        "Description[vi]": "Bố cục trình chuyển cửa sổ chỉ hiện các tiêu đề cửa sổ",
        "Description[x-test]": "xxA window switcher layout only showing window captionsxx",
        "Description[zh_CN]": "只显示窗口标题的窗口切换器布局",
        "Description[zh_TW]": "只顯示視窗標題的視窗切換器佈局",
        "Icon": "preferences-system-windows-switcher-text",
        "Id": "text",
        "License": "GPL",
        "Name": "Text Only",
        "Name[ar]": "نص فقط",
        "Name[az]": "Yalnız mətn",
        "Name[bg]": "Само текст",
        "Name[ca@valencia]": "Només el text",
        "Name[ca]": "Només el text",
        "Name[cs]": "Pouze text",
        "Name[de]": "Nur Text",
        "Name[en_GB]": "Text Only",
        "Name[es]": "Solo texto",
        "Name[eu]": "Testua soilik",
        "Name[fi]": "Vain teksti",
        "Name[fr]": "Texte seul",
        "Name[ia]": "Solmente texto",
        "Name[id]": "Hanya Teks",
        "Name[is]": "Einungis texti",
        "Name[it]": "Solo testo",
        "Name[ja]": "テキストのみ",
        "Name[ka]": "მხოლოდ ტექსტი",
        "Name[ko]": "텍스트만",
        "Name[lt]": "Tik tekstas",
        "Name[nl]": "Alleen tekst",
        "Name[nn]": "Berre tekst",
        "Name[pl]": "Tylko tekst",
        "Name[pt]": "Apenas o Texto",
        "Name[pt_BR]": "Apenas texto",
        "Name[ro]": "Numai text",
        "Name[ru]": "Только текст",
        "Name[sk]": "Iba text",
        "Name[sl]": "Samo besedilo",
        "Name[sv]": "Enbart text",
        "Name[tr]": "Yalnızca Metin",
        "Name[uk]": "Лише текст",
        "Name[vi]": "Chỉ chữ",
        "Name[x-test]": "xxText Onlyxx",
        "Name[zh_CN]": "仅文字",
        "Name[zh_TW]": "只有文字",
        "ServiceTypes": [
            "KWin/WindowSwitcher"
        ],
        "Version": "1.0"
    },
    "X-Plasma-API": "declarativeappletscript",
    "X-Plasma-MainScript": "ui/main.qml"
}
