{
    "KPlugin": {
        "Icon": "",
        "Name": "Bing",
        "Name[ar]": "محرك بنج",
        "Name[az]": "Bing",
        "Name[bg]": "Bing",
        "Name[ca@valencia]": "Bing",
        "Name[ca]": "Bing",
        "Name[cs]": "Bing",
        "Name[da]": "Bing",
        "Name[de]": "Bing",
        "Name[en_GB]": "Bing",
        "Name[es]": "Bing",
        "Name[et]": "Bing",
        "Name[eu]": "Bing",
        "Name[fi]": "Bing",
        "Name[fr]": "Bing",
        "Name[gl]": "Bing",
        "Name[hu]": "Bing",
        "Name[ia]": "Bing",
        "Name[id]": "Bing",
        "Name[is]": "Bing",
        "Name[it]": "Bing",
        "Name[ja]": "Bing",
        "Name[ka]": "Bing",
        "Name[ko]": "Bing",
        "Name[lt]": "Bing",
        "Name[nl]": "Bing",
        "Name[nn]": "Bing",
        "Name[pl]": "Bing",
        "Name[pt]": "Bing",
        "Name[pt_BR]": "Bing",
        "Name[ro]": "Bing",
        "Name[ru]": "Bing",
        "Name[sk]": "Bing",
        "Name[sl]": "Bing",
        "Name[sv]": "Bing",
        "Name[tr]": "Bing",
        "Name[uk]": "Bing",
        "Name[vi]": "Bing",
        "Name[x-test]": "xxBingxx",
        "Name[zh_CN]": "必应",
        "Name[zh_TW]": "Bing"
    },
    "X-KDE-PlasmaPoTDProvider-Identifier": "bing"
}
