{
    "KPlugin": {
        "Icon": "",
        "Name": "Unsplash Wallpapers",
        "Name[ar]": "خلفيات Unsplash",
        "Name[az]": "Unsplash'dan divar kağızları",
        "Name[bg]": "Свиване на тапетите",
        "Name[ca@valencia]": "Fons de pantalla d'Unsplash",
        "Name[ca]": "Fons de pantalla d'Unsplash",
        "Name[cs]": "Tapety Unsplash",
        "Name[da]": "Unsplash-baggrundsbilleder",
        "Name[de]": "„Unsplash“-Hintergrundbilder",
        "Name[en_GB]": "Unsplash Wallpapers",
        "Name[es]": "Fondos de pantalla de Unsplash",
        "Name[et]": "Unsplashi taustapildid",
        "Name[eu]": "«Unsplash» horma-paperak",
        "Name[fi]": "Unsplash-taustakuvat",
        "Name[fr]": "Fonds d'écran « Unsplash »",
        "Name[gl]": "Fondos de Unsplash",
        "Name[hu]": "Unsplash háttérképek",
        "Name[ia]": "Unsplash Wallpapers (Tapetes de papiro UnSplash)",
        "Name[id]": "Wallpaper Unsplash",
        "Name[is]": "Unsplash-bakgrunnsmyndir",
        "Name[it]": "Immagini di sfondo di Unsplash",
        "Name[ja]": "Unsplash 壁紙",
        "Name[ka]": "ფონის სურათების დაბრუნება",
        "Name[ko]": "Unsplash 배경 그림",
        "Name[lt]": "Unsplash darbalaukio fonai",
        "Name[nl]": "Achtergrondafbeeldingen niet als startscherm gebruiken",
        "Name[nn]": "Unsplash-bilete",
        "Name[pl]": "Tapety Unsplash",
        "Name[pt]": "Papéis de Parede Unsplash",
        "Name[pt_BR]": "Papéis de parede do Unsplash",
        "Name[ro]": "Tapete Unsplash",
        "Name[ru]": "Обои с сайта Unsplash",
        "Name[sk]": "Tapety Unsplash",
        "Name[sl]": "Unsplash Wallpapers",
        "Name[sv]": "Unsplash skrivbordsunderlägg",
        "Name[tr]": "Unsplash Duvar Kağıtları",
        "Name[uk]": "Зображення тла з Unsplash",
        "Name[vi]": "Phông nền Unsplash",
        "Name[x-test]": "xxUnsplash Wallpapersxx",
        "Name[zh_CN]": "Unsplash 壁纸",
        "Name[zh_TW]": "Unsplash 桌布"
    },
    "X-KDE-PlasmaPoTDProvider-Identifier": "unsplash"
}
